vec8,baseline,11
docem,13
upem,65
name,Win/BMP,en-US,1,Apel 13 M LAB 20240521
name,Win/BMP,en-US,2,Regular
name,Win/BMP,en-US,3,Apel 13 M LAB 20240521 Regular
name,Win/BMP,en-US,4,Apel 13 M LAB 20240521 Regular
name,Win/BMP,en-US,5,Version 2024.0521
name,Win/BMP,en-US,6,Apel13MLAB20240521-Regular
name,Win/BMP,en-US,9,B&H
name,Win/BMP,en-US,10,https://about.cubictype.com/
name,Win/BMP,en-US,11,https://about.cubictype.com/
name,Win/BMP,en-US,19,"-=** Apel 13 M LAB 20240521 Regular **=-
/// Code like it’s 1992 ///"
os/2,VendID,CUBI
os/2,TypoAscender,60
os/2,TypoDescender,-20
cmap,char,U+2400,U+241F,glyph,0
cmap,char,U+0020,U+007E,glyph,32
cmap,char,U+2426,U+2426,glyph,128
cmap,char,U+00A0,U+00FF,glyph,160
